%!PS-Adobe-3.0 EPSF-3.0
%%Creator: cairo 1.15.12 (http://cairographics.org)
%%CreationDate: Mon Apr 12 09:14:42 2021
%%Pages: 1
%%DocumentData: Clean7Bit
%%LanguageLevel: 2
%%BoundingBox: 0 0 152 198
%%EndComments
%%BeginProlog
50 dict begin
/q { gsave } bind def
/Q { grestore } bind def
/cm { 6 array astore concat } bind def
/w { setlinewidth } bind def
/J { setlinecap } bind def
/j { setlinejoin } bind def
/M { setmiterlimit } bind def
/d { setdash } bind def
/m { moveto } bind def
/l { lineto } bind def
/c { curveto } bind def
/h { closepath } bind def
/re { exch dup neg 3 1 roll 5 3 roll moveto 0 rlineto
      0 exch rlineto 0 rlineto closepath } bind def
/S { stroke } bind def
/f { fill } bind def
/f* { eofill } bind def
/n { newpath } bind def
/W { clip } bind def
/W* { eoclip } bind def
/BT { } bind def
/ET { } bind def
/BDC { mark 3 1 roll /BDC pdfmark } bind def
/EMC { mark /EMC pdfmark } bind def
/cairo_store_point { /cairo_point_y exch def /cairo_point_x exch def } def
/Tj { show currentpoint cairo_store_point } bind def
/TJ {
  {
    dup
    type /stringtype eq
    { show } { -0.001 mul 0 cairo_font_matrix dtransform rmoveto } ifelse
  } forall
  currentpoint cairo_store_point
} bind def
/cairo_selectfont { cairo_font_matrix aload pop pop pop 0 0 6 array astore
    cairo_font exch selectfont cairo_point_x cairo_point_y moveto } bind def
/Tf { pop /cairo_font exch def /cairo_font_matrix where
      { pop cairo_selectfont } if } bind def
/Td { matrix translate cairo_font_matrix matrix concatmatrix dup
      /cairo_font_matrix exch def dup 4 get exch 5 get cairo_store_point
      /cairo_font where { pop cairo_selectfont } if } bind def
/Tm { 2 copy 8 2 roll 6 array astore /cairo_font_matrix exch def
      cairo_store_point /cairo_font where { pop cairo_selectfont } if } bind def
/g { setgray } bind def
/rg { setrgbcolor } bind def
/d1 { setcachedevice } bind def
/cairo_data_source {
  CairoDataIndex CairoData length lt
    { CairoData CairoDataIndex get /CairoDataIndex CairoDataIndex 1 add def }
    { () } ifelse
} def
/cairo_flush_ascii85_file { cairo_ascii85_file status { cairo_ascii85_file flushfile } if } def
/cairo_image { image cairo_flush_ascii85_file } def
/cairo_imagemask { imagemask cairo_flush_ascii85_file } def
%%EndProlog
%%BeginSetup
%%EndSetup
%%Page: 1 1
%%BeginPageSetup
%%PageBoundingBox: 0 0 152 198
%%EndPageSetup
q 0 0 152 198 rectclip
1 0 0 -1 0 198 cm q
0 g
151.875 192.48 m 151.875 193.816 151.258 194.977 150.023 195.961 c 148.797
 196.945 147.516 197.438 146.18 197.438 c 6.434 197.438 l 5.027 197.438 
3.602 196.891 2.156 195.797 c 0.719 194.711 0 193.465 0 192.059 c 0 89.648
 l 0 88.594 0.422 87.504 1.266 86.379 c 2.109 85.254 3.023 84.691 4.008 
84.691 c 24.996 84.691 l 24.996 43.77 l 24.996 38.566 25.98 33.258 27.949
 27.844 c 34.699 9.281 50.766 0 76.148 0 c 101.25 0 117.246 9.281 124.137
 27.844 c 126.176 33.328 127.195 38.602 127.195 43.664 c 127.195 84.691 
l 148.605 84.691 l 149.66 84.691 150.75 86.098 151.875 88.91 c h
118.547 84.586 m 118.547 41.555 l 118.547 38.039 117.402 33.926 115.113
 29.215 c 112.832 24.504 110.32 20.988 107.578 18.668 c 99.703 11.918 89.227
 8.543 76.148 8.543 c 54.984 8.543 41.625 15.996 36.07 30.902 c 34.453 35.262
 33.645 38.848 33.645 41.66 c 33.645 84.586 l 37.336 84.586 l 37.336 46.723
 l 37.336 39.199 39.41 32.328 43.559 26.109 c 47.707 19.883 53.262 15.609
 60.223 13.289 c 63.527 12.164 66.059 11.602 67.816 11.602 c 68.238 11.812
 l 67.324 12.305 65.988 12.797 64.23 13.289 c 58.816 14.906 53.648 18.668
 48.727 24.574 c 43.805 30.48 41.344 36.176 41.344 41.66 c 41.344 42.082
 41.254 42.715 41.074 43.559 c 40.902 44.402 40.816 45.035 40.816 45.457
 c 40.816 84.586 l 47.25 84.586 l 47.25 41.555 l 47.25 38.109 48.867 34.453
 52.102 30.586 c 55.195 26.93 58.465 24.539 61.91 23.414 c 67.113 21.727
 71.859 20.883 76.148 20.883 c 89.297 20.883 98.121 25.418 102.621 34.488
 c 104.168 37.582 104.941 39.973 104.941 41.66 c 104.941 84.586 l 108.633
 84.586 l 108.633 44.297 l 108.633 39.023 106.785 34.051 103.09 29.379 c
 99.402 24.699 94.992 21.586 89.859 20.039 c 96.258 20.32 101.672 23.238
 106.102 28.793 c 110.32 34.066 112.43 39.973 112.43 46.512 c 112.43 84.586
 l h
96.609 84.586 m 96.609 42.926 l 96.609 40.113 95.359 37.406 92.859 34.805
 c 90.367 32.203 87.715 30.691 84.902 30.27 c 80.965 29.707 78.047 29.426
 76.148 29.426 c 74.109 29.426 72.422 29.461 71.086 29.531 c 67.359 29.742
 63.914 31.078 60.75 33.539 c 57.305 36.281 55.582 39.445 55.582 43.031 
c 55.582 84.586 l h
143.227 188.789 m 143.227 92.918 l 138.375 92.918 l 138.375 188.789 l h
133.945 188.789 m 133.945 92.918 l 8.648 92.918 l 8.648 188.789 l h
89.438 124.77 m 89.438 129.902 87.152 133.629 82.582 135.949 c 89.121 172.02
 l 63.176 172.02 l 69.293 135.949 l 65.145 133.98 63.07 130.254 63.07 124.77
 c 63.07 121.113 64.336 117.969 66.867 115.336 c 69.398 112.695 72.492 111.375
 76.148 111.375 c 79.734 111.375 82.844 112.711 85.477 115.383 c 88.117 
118.055 89.438 121.184 89.438 124.77 c h
89.438 124.77 m f
Q Q
showpage
%%Trailer
end
%%EOF
